…
De lo descrito anteriormente, se solicita:

1.  Determine la cantidad de **missing values** de la serie de tiempo a
    paso diario.

``` r
data2 %>% dplyr::mutate(date = as.Date(date, format = "%d/%m/%Y")) %>%
  rename(pp = qc00000235) %>% 
  dplyr::select(date, pp) %>%
  group_by(date) %>% 
  mutate(missVal = sum(is.na(pp)))
```

    ## # A tibble: 12,419 x 3
    ## # Groups:   date [12,419]
    ##    date          pp missVal
    ##    <date>     <dbl>   <int>
    ##  1 1980-01-01     0       0
    ##  2 1980-01-02     0       0
    ##  3 1980-01-03     0       0
    ##  4 1980-01-04     0       0
    ##  5 1980-01-05     0       0
    ##  6 1980-01-06     0       0
    ##  7 1980-01-07     0       0
    ##  8 1980-01-08     0       0
    ##  9 1980-01-09     0       0
    ## 10 1980-01-10     0       0
    ## # ... with 12,409 more rows
…
